my_blog - Semaine 3
…
Quelle a été cette discipline au cours de chacune des éditions ? Calculez le nombre de fois où chaque discipline a été la discipline avec les plus grandes athlètes.

discipline_plus_grandes_par_edition <- olympics_athletes |>
  filter(Sex == "F", isSummer == TRUE) |>
  group_by(Year, Sport) |>
  summarise(taille_moyenne = mean(Height, na.rm = TRUE), .groups = "drop") |>
  # Filtrer les lignes où la taille moyenne n'est pas NaN
  filter(!is.na(taille_moyenne)) |>
  group_by(Year) |>
  slice_max(order_by = taille_moyenne, n = 1) |>
  ungroup()

discipline_plus_grandes_par_edition

# A tibble: 23 × 3
    Year Sport         taille_moyenne
   <int> <chr>                  <dbl>
 1  1920 Swimming                166.
 2  1924 Fencing                 168.
 3  1928 Fencing                 172.
 4  1932 Fencing                 173.
 5  1936 Fencing                 178 
 6  1948 Swimming                172.
 7  1952 Athletics               168.
 8  1956 Equestrianism           170.
 9  1960 Athletics               169.
10  1964 Volleyball              171.
# ℹ 13 more rows
…
