my_blog - Semaine 2
…
Semaine 2 Exercices

1 . Lancer la commande suivante :

list_tables <-
  session("https://fr.wikipedia.org/wiki/Liste_des_m%C3%A9daill%C3%A9s_olympiques") |>
  html_elements(".wikitable") |>
  html_table()

head(list_tables, n= 1)

[[1]]
# A tibble: 31 × 11
   Discipline   Discipline   Années `Nombre de` `Nombre de` `médailles décernés`
   <chr>        <chr>        <chr>  <chr>       <chr>       <chr>               
 1 "Discipline" Discipline   Années Éditions    Épreuves(e… Or                  
 2 ""           Athlétisme   Depui… 29          48          1028                
 3 ""           Aviron       Depui… 28          14          269                 
 4 ""           Badminton    Depui… 8           5           39                  
 5 ""           Basket-ball  Depui… 20          4           32                  
 6 ""           Boxe         1904,… 26          13          266                 
 7 ""           Canoë-kayak  Depui… 20          16          242                 
 8 ""           Cyclisme(ho… Depui… 29          22          263                 
 9 ""           Équitation   1900,… 26          6           151                 
10 ""           Escrime      Depui… 29          12          223                 
# ℹ 21 more rows
# ℹ 5 more variables: `médailles décernés` <chr>, `médailles décernés` <chr>,
#   `médailles décernés` <chr>,
#   `Athlète(s) avec le plus de médailles (Or-Argent-Bronze)` <chr>,
#   `Athlète(s) avec le plus de médailles d'or` <chr>
…
