my_blog - Post With Code
…
graphique <- visualiser_temperatures(meteo)
graphique

Prévisions météo pour les coordonnées GPS

# Coordonnées GPS 
gps <- c( 43.276703, 5.334791)

# Obtenir les prévisions météorologiques
meteo <- get_forecast(gps)
meteo

# A tibble: 168 × 5
   date_heure          temperature_celsius temperature_ressentie
   <dttm>                            <dbl>                 <dbl>
 1 2024-02-25 00:00:00                 8.9                   5.5
 2 2024-02-25 01:00:00                 7.9                   4.9
 3 2024-02-25 02:00:00                 7.7                   4.8
 4 2024-02-25 03:00:00                 6.3                   3.6
 5 2024-02-25 04:00:00                 6.4                   3.2
 6 2024-02-25 05:00:00                 6.8                   3.3
 7 2024-02-25 06:00:00                 6.8                   3.1
 8 2024-02-25 07:00:00                 6.9                   2.6
 9 2024-02-25 08:00:00                 8.1                   4.4
10 2024-02-25 09:00:00                10.4                   6.8
# ℹ 158 more rows
# ℹ 2 more variables: precipitation_proba <int>, precipitation_mm <dbl>
…
