my_blog - Package olympicsWeather
…
remotes::install_github("isabel6198/olympicsWeather")

Exemples

Site: le stade de France

# librairie 
library(olympicsWeather)

# Obtenir les prévisions météorologiques à partir d'un lieu exacte
meteo <- get_forecast("Stade de France, Saint-Denis, France")
meteo

# A tibble: 168 × 5
   date_heure          temperature_celsius temperature_ressentie
   <dttm>                            <dbl>                 <dbl>
 1 2024-02-26 00:00:00                 8.2                   6.3
 2 2024-02-26 01:00:00                 8.4                   6.4
 3 2024-02-26 02:00:00                 8.3                   6.4
 4 2024-02-26 03:00:00                 8.5                   6.7
 5 2024-02-26 04:00:00                 8.3                   6.6
 6 2024-02-26 05:00:00                 8.2                   6.7
 7 2024-02-26 06:00:00                 8.1                   6.8
 8 2024-02-26 07:00:00                 7.8                   6.2
 9 2024-02-26 08:00:00                 8                     6.3
10 2024-02-26 09:00:00                 9.2                   7.2
# ℹ 158 more rows
# ℹ 2 more variables: precipitation_proba <int>, precipitation_mm <dbl>

# Visualer les données
graphique <- visualiser_temperatures(meteo)
graphique

Coordonnées GPS

# Obtenir les prévisions météorologiques à partir de Coordonnées GPS 
gps <- c( 43.276703, 5.334791)

# Obtenir les prévisions météorologiques
meteo <- get_forecast(gps)
meteo

# A tibble: 168 × 5
   date_heure          temperature_celsius temperature_ressentie
   <dttm>                            <dbl>                 <dbl>
 1 2024-02-26 00:00:00                13.1                  10.4
 2 2024-02-26 01:00:00                13.1                   9.2
 3 2024-02-26 02:00:00                12.9                  10.1
 4 2024-02-26 03:00:00                12.6                  11  
 5 2024-02-26 04:00:00                11.8                   8.9
 6 2024-02-26 05:00:00                12.4                   9.7
 7 2024-02-26 06:00:00                12.3                   9.9
 8 2024-02-26 07:00:00                11.8                   9.3
 9 2024-02-26 08:00:00                11.9                  10.3
10 2024-02-26 09:00:00                11.4                  10.6
# ℹ 158 more rows
# ℹ 2 more variables: precipitation_proba <int>, precipitation_mm <dbl>
…
